Login Valid,2000,1373,1412,2114,2322,2683,23,3624,2.65%,59.1,23.1
View Messages,2000,386,310,795,984,1273,5,1718,2.65%,59.3,33.5
View Rooms,2000,331,259,685,824,1322,4,1738,2.65%,59.3,12.9
Logout,2000,291,220,653,757,986,4,1662,0.00%,59.2,15.7
Login Invalid,2000,322,251,667,782,1291,4,1862,100.00%,59.2,10.6
TOTAL,10000,540,351,1423,1806,2322,4,3624,21.59%,294.7,95.4
